Mux_test/simulation/qsim/mux4.msim.vcd
$comment
	File created using the following command:
		vcd file mux4.msim.vcd -direction
$end
$date
	Mon Apr 18 15:37:24 2016
$end
$version
	ModelSim Version 10.1d
$end
$timescale
	1ps
$end
$scope module top_vlg_vec_tst $end
$var reg 1 ! clk $end
$var reg 8 " inext [7:0] $end
$var wire 1 # dataoutf [7] $end
$var wire 1 $ dataoutf [6] $end
$var wire 1 % dataoutf [5] $end
$var wire 1 & dataoutf [4] $end
$var wire 1 ' dataoutf [3] $end
$var wire 1 ( dataoutf [2] $end
$var wire 1 ) dataoutf [1] $end
$var wire 1 * dataoutf [0] $end
$var wire 1 + sampler $end
$scope module i1 $end
$var wire 1 , gnd $end
$var wire 1 - vcc $end
$var wire 1 . unknown $end
$var tri1 1 / devclrn $end
$var tri1 1 0 devpor $end
$var tri1 1 1 devoe $end
$var wire 1 2 clk~input_o $end
$var wire 1 3 inext[0]~input_o $end
$var wire 1 4 inext[1]~input_o $end
$var wire 1 5 inext[2]~input_o $end
$var wire 1 6 inext[3]~input_o $end
$var wire 1 7 inext[4]~input_o $end
$var wire 1 8 inext[5]~input_o $end
$var wire 1 9 inext[6]~input_o $end
$var wire 1 : inext[7]~input_o $end
$var wire 1 ; dataoutf[0]~output_o $end
$var wire 1 < dataoutf[1]~output_o $end
$var wire 1 = dataoutf[2]~output_o $end
$var wire 1 > dataoutf[3]~output_o $end
$var wire 1 ? dataoutf[4]~output_o $end
$var wire 1 @ dataoutf[5]~output_o $end
$var wire 1 A dataoutf[6]~output_o $end
$var wire 1 B dataoutf[7]~output_o $end
$upscope $end
$upscope $end
$enddefinitions $end
#0
$dumpvars
0!
b0 "
z*
z)
z(
z'
z&
z%
z$
z#
x+
0,
1-
x.
1/
10
11
02
03
04
05
06
07
08
09
0:
z;
z<
z=
z>
z?
z@
zA
zB
$end
#20000
1!
12
0+
#60000
0!
02
1+
#100000
1!
12
0+
#140000
0!
02
1+
#180000
1!
12
0+
#220000
0!
02
1+
#260000
1!
12
0+
#300000
0!
02
1+
#340000
1!
12
0+
#360000
0!
02
1+
#380000
1!
12
0+
#400000
0!
02
1+
#420000
1!
12
0+
#460000
0!
02
1+
#500000
1!
12
0+
#540000
0!
02
1+
#560000
1!
12
0+
#600000
0!
02
1+
#640000
1!
12
0+
#680000
0!
02
1+
#720000
1!
12
0+
#760000
0!
02
1+
#800000
1!
12
0+
#840000
0!
02
1+
#880000
1!
12
0+
#900000
0!
02
1+
#920000
1!
12
0+
#940000
0!
02
1+
#960000
1!
12
0+
#980000
0!
02
1+
